{
  "project_info": {
    "project_number": "513179095532",
    "firebase_url": "https://fuel-situation-4d501.firebaseio.com",
    "project_id": "fuel-situation-4d501",
    "storage_bucket": "fuel-situation-4d501.appspot.com"
  },
  "client": [
    {
      "client_info": {
        "mobilesdk_app_id": "1:513179095532:android:763a3b4c75b265174cb0c9",
        "android_client_info": {
          "package_name": "com.fuelsituation"
        }
      },
      "oauth_client": [
        {
          "client_id": "513179095532-skel7175nenamvkad4io0b8mku83p6sl.apps.googleusercontent.com",
          "client_type": 1,
          "android_info": {
            "package_name": "com.fuelsituation",
            "certificate_hash": "cc78bf9378f72251047d24e773b809d6a103c62e"
          }
        },
        {
          "client_id": "513179095532-rleaqs0bfptog9l2ufvgk05kto8a1505.apps.googleusercontent.com",
          "client_type": 3
        }
      ],
      "api_key": [
        {
          "current_key": "AIzaSyBeKHMdLtSkjTmndTH45ETNicofsgFsZBM"
        }
      ],
      "services": {
        "appinvite_service": {
          "other_platform_oauth_client": [
            {
              "client_id": "513179095532-rleaqs0bfptog9l2ufvgk05kto8a1505.apps.googleusercontent.com",
              "client_type": 3
            }
          ]
        }
      }
    }
  ],
  "configuration_version": "1"
}